Pacuraru;1234567890876;ASISTENT;1200
Dumitrescu;1234567890876;LECTURER;2300
Ionescu;1234567890876;LECTURER;2100
Pacuraru;1234567890876;ASISTENT;8000
Georgescu;1234567890876;TEACHER;500
Puscas;1234567890876;TEACHER;2500
